…
``` r
awards_num <- awards_num %>%
  mutate(
    obl_totalobl = (obligated + total_obligated),
    obl_totalobl_abs = (abs(obligated) + abs(total_obligated)),
    opt_totalopt = (options + total_options),
    opt_totalopt_abs = (abs(options) + abs(total_options)),
    ucv_totalucv = (ucv + total_ucv),
    ucv_totalucv_abs = (abs(ucv) + abs(total_ucv))
  )
awards_num
```

    ## # A tibble: 4,618 × 17
    ##    piid  idv_piid  value savings obligated total_obligated options total_options
    ##    <chr> <chr>     <dbl>   <dbl>     <dbl>           <dbl>   <dbl>         <dbl>
    ##  1 75N9… GS02Q16… 2.09e5       0        0          209395.      0        209395.
    ##  2 2033… 2032H32… 8.87e4       0        0           88734.      0         88734.
    ##  3 2033… 2032H32… 8.26e4       0        0           45424.      0         45424.
    ##  4 2032… 2032H32… 3.22e4       0   -30472.           1728. -30472.         1728.
    ##  5 2032… 2032H32… 1.77e4       0   -12120.           5616. -12120.         5616.
    ##  6 75N9… 47QRAA1… 4.78e6       0        0         4530811.      0       4530811.
    ##  7 2032… 2032H82… 9.5 e5       0        0           79557       0         79557 
    ##  8 47QD… GS00F22… 1.52e4       0     7584           15168    7584         15168 
    ##  9 68HE… <NA>     1.80e5       0        0          180000       0        180000 
    ## 10 75AC… 47QRAA1… 1.27e6       0        0         1267114.      0       1267114.
    ## # ℹ 4,608 more rows
    ## # ℹ 9 more variables: ucv <dbl>, total_ucv <dbl>, fees <dbl>,
    ## #   obl_totalobl <dbl>, obl_totalobl_abs <dbl>, opt_totalopt <dbl>,
    ## #   opt_totalopt_abs <dbl>, ucv_totalucv <dbl>, ucv_totalucv_abs <dbl>
…
    f2 = abs(value - opt_totalopt_abs + savings),
    g = abs(value - total_ucv),
    g1 = abs(value - total_ucv - savings),
    g2 = abs(value - total_ucv + savings),
    h = abs(value - ucv_totalucv),
    h1 = abs(value - ucv_totalucv - savings),
    h2 = abs(value - ucv_totalucv + savings),
    i = abs(value - ucv_totalucv_abs),
    i1 = abs(value - ucv_totalucv_abs - savings),
    i2 = abs(value - ucv_totalucv_abs + savings)
  )
checks
```

    ## # A tibble: 4,618 × 44
    ##    piid  idv_piid  value savings obligated total_obligated options total_options
    ##    <chr> <chr>     <dbl>   <dbl>     <dbl>           <dbl>   <dbl>         <dbl>
    ##  1 75N9… GS02Q16… 2.09e5       0        0          209395.      0        209395.
    ##  2 2033… 2032H32… 8.87e4       0        0           88734.      0         88734.
    ##  3 2033… 2032H32… 8.26e4       0        0           45424.      0         45424.
    ##  4 2032… 2032H32… 3.22e4       0   -30472.           1728. -30472.         1728.
    ##  5 2032… 2032H32… 1.77e4       0   -12120.           5616. -12120.         5616.
    ##  6 75N9… 47QRAA1… 4.78e6       0        0         4530811.      0       4530811.
    ##  7 2032… 2032H82… 9.5 e5       0        0           79557       0         79557 
    ##  8 47QD… GS00F22… 1.52e4       0     7584           15168    7584         15168 
    ##  9 68HE… <NA>     1.80e5       0        0          180000       0        180000 
    ## 10 75AC… 47QRAA1… 1.27e6       0        0         1267114.      0       1267114.
    ## # ℹ 4,608 more rows
    ## # ℹ 36 more variables: ucv <dbl>, total_ucv <dbl>, fees <dbl>,
    ## #   obl_totalobl <dbl>, obl_totalobl_abs <dbl>, opt_totalopt <dbl>,
    ## #   opt_totalopt_abs <dbl>, ucv_totalucv <dbl>, ucv_totalucv_abs <dbl>,
    ## #   a <dbl>, a1 <dbl>, a2 <dbl>, b <dbl>, b1 <dbl>, b2 <dbl>, c <dbl>,
    ## #   c1 <dbl>, c2 <dbl>, d <dbl>, d1 <dbl>, d2 <dbl>, e <dbl>, e1 <dbl>,
    ## #   e2 <dbl>, f <dbl>, f1 <dbl>, f2 <dbl>, g <dbl>, g1 <dbl>, g2 <dbl>, …

## Takes all rows and gets the Minimum Value from all columns

``` r
checks <- checks %>%
  rowwise() %>% # dplyr rowwise() used here to take min() on row instead of col
  mutate(
    minval = min(c_across(a:i2))
  ) %>%
  ungroup() # ungroup the rowwise() to prevent any accidental errors
checks
```

    ## # A tibble: 4,618 × 45
    ##    piid  idv_piid  value savings obligated total_obligated options total_options
    ##    <chr> <chr>     <dbl>   <dbl>     <dbl>           <dbl>   <dbl>         <dbl>
    ##  1 75N9… GS02Q16… 2.09e5       0        0          209395.      0        209395.
    ##  2 2033… 2032H32… 8.87e4       0        0           88734.      0         88734.
    ##  3 2033… 2032H32… 8.26e4       0        0           45424.      0         45424.
    ##  4 2032… 2032H32… 3.22e4       0   -30472.           1728. -30472.         1728.
    ##  5 2032… 2032H32… 1.77e4       0   -12120.           5616. -12120.         5616.
    ##  6 75N9… 47QRAA1… 4.78e6       0        0         4530811.      0       4530811.
    ##  7 2032… 2032H82… 9.5 e5       0        0           79557       0         79557 
    ##  8 47QD… GS00F22… 1.52e4       0     7584           15168    7584         15168 
    ##  9 68HE… <NA>     1.80e5       0        0          180000       0        180000 
    ## 10 75AC… 47QRAA1… 1.27e6       0        0         1267114.      0       1267114.
    ## # ℹ 4,608 more rows
    ## # ℹ 37 more variables: ucv <dbl>, total_ucv <dbl>, fees <dbl>,
    ## #   obl_totalobl <dbl>, obl_totalobl_abs <dbl>, opt_totalopt <dbl>,
    ## #   opt_totalopt_abs <dbl>, ucv_totalucv <dbl>, ucv_totalucv_abs <dbl>,
    ## #   a <dbl>, a1 <dbl>, a2 <dbl>, b <dbl>, b1 <dbl>, b2 <dbl>, c <dbl>,
    ## #   c1 <dbl>, c2 <dbl>, d <dbl>, d1 <dbl>, d2 <dbl>, e <dbl>, e1 <dbl>,
    ## #   e2 <dbl>, f <dbl>, f1 <dbl>, f2 <dbl>, g <dbl>, g1 <dbl>, g2 <dbl>, …
…
## Looks for rows which were affected by PlusSavings functions

``` r
checks %>%
  filter(savings > 0) %>%
  select(piid,a2,b2,c2,d2,e2,f2,g2,h2,i2,mincol) %>%
  rowwise() %>%
  mutate(
    minval = min(a2,b2,c2,d2,e2,f2,g2,h2,i2)
  ) %>%
  ungroup() %>%
  filter(minval < 1)
```

    ## # A tibble: 30 × 12
    ##    piid       a2      b2      c2      d2      e2      f2      g2      h2      i2
    ##    <chr>   <dbl>   <dbl>   <dbl>   <dbl>   <dbl>   <dbl>   <dbl>   <dbl>   <dbl>
    ##  1 86614…  3665  3.66e+3 3.66e+3 3.66e+3 3.66e+3 3.66e+3 3.66e+3 7.33e+3 0      
    ##  2 6913G… 30000  4.50e+4 1.5 e+4 3   e+4 4.50e+4 1.5 e+4 1.5 e+4 3   e+4 0      
    ##  3 20343… 31766. 3.18e+4 3.18e+4 1.59e+4 2.00e-1 2.00e-1 1.59e+4 1.59e+4 1.59e+4
    ##  4 49100… 33520. 3.00e-1 3.00e-1 3.00e-1 3.35e+4 3.35e+4 3.00e-1 3.35e+4 3.35e+4
    ##  5 20346… 38282. 0       0       3.83e+4 0       0       3.83e+4 3.83e+4 3.83e+4
    ##  6 HQ003… 40000  0       0       4   e+4 0       0       4   e+4 4   e+4 4   e+4
    ##  7 34300… 84000  1.26e+5 4.20e+4 4.20e+4 8.40e+4 0       4.20e+4 8.40e+4 0      
    ##  8 89303… 89240  4.46e+4 4.46e+4 4.46e+4 0       0       4.46e+4 0       0      
    ##  9 89303… 46470. 8.00e-2 8.00e-2 4.65e+4 8.00e-2 8.00e-2 4.65e+4 8.00e-2 8.00e-2
    ## 10 89303… 55602. 5.52e+4 5.52e+4 5.56e+4 5.52e+4 5.52e+4 2.70e-1 4.20e+2 4.20e+2
    ## # ℹ 20 more rows
    ## # ℹ 2 more variables: mincol <chr>, minval <dbl>
…
This indicates no other columns likely impacted it, can go back and
check for each individual row

``` r
checks %>%
  filter(savings > 0) %>%
  select(piid,a2,b2,c2,d2,e2,f2,g2,h2,i2,mincol) %>%
  mutate(
    minval = min(a2,b2,c2,d2,e2,f2,g2,h2,i2)
  ) %>%
  filter(minval < 1) %>%
  filter(mincol %in% c("a2","b2","c2","d2","e2","f2","g2","h2","i2"))
```

    ## # A tibble: 57 × 12
    ##    piid        a2     b2     c2     d2     e2     f2     g2     h2     i2 mincol
    ##    <chr>    <dbl>  <dbl>  <dbl>  <dbl>  <dbl>  <dbl>  <dbl>  <dbl>  <dbl> <chr> 
    ##  1 2032H5… 2.77e5 2.77e5 2.77e5 2.77e5 2.77e5 2.77e5 3.32e6 3.32e6 3.32e6 a2    
    ##  2 75D301… 6.94e2 6.94e2 6.94e2 6.94e2 6.94e2 6.94e2 6.94e2 6.94e2 6.94e2 a2    
    ##  3 343000… 3.56e3 3.56e3 3.56e3 3.56e3 3.56e3 3.56e3 3.56e3 3.56e3 3.56e3 b2    
    ##  4 75D301… 5.67e4 5.67e4 5.67e4 5.67e4 5.67e4 5.67e4 5.67e4 5.67e4 5.67e4 a2    
    ##  5 36C776… 7.08e4 4.55e4 9.61e4 7.08e4 4.55e4 9.61e4 7.08e4 4.55e4 9.61e4 b2    
    ##  6 75D301… 7.79e3 7.79e3 7.79e3 7.79e3 7.79e3 7.79e3 7.79e3 7.79e3 7.79e3 a2    
    ##  7 75D301… 2.42e4 2.42e4 2.42e4 2.42e4 2.42e4 2.42e4 8.82e4 8.82e4 8.82e4 a2    
    ##  8 N00189… 7.07e5 1.44e6 1.44e6 7.07e5 1.44e6 1.44e6 7.07e5 7.07e5 7.07e5 a2    
    ##  9 75F401… 3.60e5 3.60e5 3.60e5 3.60e5 3.60e5 3.60e5 8.15e5 8.15e5 8.15e5 a2    
    ## 10 203464… 3.83e4 0      0      3.83e4 0      0      3.83e4 3.83e4 3.83e4 b2    
    ## # ℹ 47 more rows
    ## # ℹ 1 more variable: minval <dbl>
…
## Find minval

``` r
checks <- checks %>%
  rowwise() %>%
  mutate(
    minval = min(c_across(a1:l9))
  ) %>%
  ungroup()
checks
```

    ## # A tibble: 4,618 × 126
    ##    piid  idv_piid  value savings obligated total_obligated options total_options
    ##    <chr> <chr>     <dbl>   <dbl>     <dbl>           <dbl>   <dbl>         <dbl>
    ##  1 75N9… GS02Q16… 2.09e5       0        0          209395.      0        209395.
    ##  2 2033… 2032H32… 8.87e4       0        0           88734.      0         88734.
    ##  3 2033… 2032H32… 8.26e4       0        0           45424.      0         45424.
    ##  4 2032… 2032H32… 3.22e4       0   -30472.           1728. -30472.         1728.
    ##  5 2032… 2032H32… 1.77e4       0   -12120.           5616. -12120.         5616.
    ##  6 75N9… 47QRAA1… 4.78e6       0        0         4530811.      0       4530811.
    ##  7 2032… 2032H82… 9.5 e5       0        0           79557       0         79557 
    ##  8 47QD… GS00F22… 1.52e4       0     7584           15168    7584         15168 
    ##  9 68HE… <NA>     1.80e5       0        0          180000       0        180000 
    ## 10 75AC… 47QRAA1… 1.27e6       0        0         1267114.      0       1267114.
    ## # ℹ 4,608 more rows
    ## # ℹ 118 more variables: ucv <dbl>, total_ucv <dbl>, fees <dbl>,
    ## #   obl_totalobl <dbl>, obl_totalobl_abs <dbl>, opt_totalopt <dbl>,
    ## #   opt_totalopt_abs <dbl>, ucv_totalucv <dbl>, ucv_totalucv_abs <dbl>,
    ## #   a1 <dbl>, a2 <dbl>, a3 <dbl>, a4 <dbl>, a5 <dbl>, a6 <dbl>, a7 <dbl>,
    ## #   a8 <dbl>, a9 <dbl>, b1 <dbl>, b2 <dbl>, b3 <dbl>, b4 <dbl>, b5 <dbl>,
    ## #   b6 <dbl>, b7 <dbl>, b8 <dbl>, b9 <dbl>, c1 <dbl>, c2 <dbl>, c3 <dbl>, …
…
# Evaluating lowest check-values

## Convert checks from wide-form to long-form data

``` r
checks_long <- checks %>%
  pivot_longer(cols="a1":"l9",
               names_to="check_column",
               values_to="check_value")
checks_long %>%
  filter(check_value < 1)
```

    ## # A tibble: 164,631 × 20
    ##    piid  idv_piid  value savings obligated total_obligated options total_options
    ##    <chr> <chr>     <dbl>   <dbl>     <dbl>           <dbl>   <dbl>         <dbl>
    ##  1 75N9… GS02Q16… 209395       0         0         209395.       0       209395.
    ##  2 75N9… GS02Q16… 209395       0         0         209395.       0       209395.
    ##  3 75N9… GS02Q16… 209395       0         0         209395.       0       209395.
    ##  4 75N9… GS02Q16… 209395       0         0         209395.       0       209395.
    ##  5 75N9… GS02Q16… 209395       0         0         209395.       0       209395.
    ##  6 75N9… GS02Q16… 209395       0         0         209395.       0       209395.
    ##  7 75N9… GS02Q16… 209395       0         0         209395.       0       209395.
    ##  8 75N9… GS02Q16… 209395       0         0         209395.       0       209395.
    ##  9 75N9… GS02Q16… 209395       0         0         209395.       0       209395.
    ## 10 75N9… GS02Q16… 209395       0         0         209395.       0       209395.
    ## # ℹ 164,621 more rows
    ## # ℹ 12 more variables: ucv <dbl>, total_ucv <dbl>, fees <dbl>,
    ## #   obl_totalobl <dbl>, obl_totalobl_abs <dbl>, opt_totalopt <dbl>,
    ## #   opt_totalopt_abs <dbl>, ucv_totalucv <dbl>, ucv_totalucv_abs <dbl>,
    ## #   minval <dbl>, check_column <chr>, check_value <dbl>
…
This shows that the ucv variable is one of the more critical ones

## Separate variable and formula from check-column

``` r
checks_long <- checks_long %>%
  mutate(
    var = substr(check_column, 1, 1),
    formula = as.numeric(substr(check_column, 2, 2))
  )
checks_long
```

    ## # A tibble: 498,744 × 22
    ##    piid  idv_piid  value savings obligated total_obligated options total_options
    ##    <chr> <chr>     <dbl>   <dbl>     <dbl>           <dbl>   <dbl>         <dbl>
    ##  1 75N9… GS02Q16… 209395       0         0         209395.       0       209395.
    ##  2 75N9… GS02Q16… 209395       0         0         209395.       0       209395.
    ##  3 75N9… GS02Q16… 209395       0         0         209395.       0       209395.
    ##  4 75N9… GS02Q16… 209395       0         0         209395.       0       209395.
    ##  5 75N9… GS02Q16… 209395       0         0         209395.       0       209395.
    ##  6 75N9… GS02Q16… 209395       0         0         209395.       0       209395.
    ##  7 75N9… GS02Q16… 209395       0         0         209395.       0       209395.
    ##  8 75N9… GS02Q16… 209395       0         0         209395.       0       209395.
    ##  9 75N9… GS02Q16… 209395       0         0         209395.       0       209395.
    ## 10 75N9… GS02Q16… 209395       0         0         209395.       0       209395.
    ## # ℹ 498,734 more rows
    ## # ℹ 14 more variables: ucv <dbl>, total_ucv <dbl>, fees <dbl>,
    ## #   obl_totalobl <dbl>, obl_totalobl_abs <dbl>, opt_totalopt <dbl>,
    ## #   opt_totalopt_abs <dbl>, ucv_totalucv <dbl>, ucv_totalucv_abs <dbl>,
    ## #   minval <dbl>, check_column <chr>, check_value <dbl>, var <chr>,
    ## #   formula <dbl>
…
