…
## How to pull parameters with parse_url()

``` r
# Encountered issues with strsplit, 
# ended up finding urltools param_get(), but couldnt get that to work either,
# simplest answer turned out to be httr parse_url(), but has weird syntax
contracts %>%
  mutate(
    contract_type = map_chr(fpds_link, ~ parse_url(.)$query$contractType),
    piid2 = map_chr(fpds_link, ~ parse_url(.)$query$PIID)
  )
```

    ## # A tibble: 5,983 × 11
    ##    piid      agency vendor  value description fpds_status fpds_link deleted_date
    ##    <chr>     <chr>  <chr>   <dbl> <chr>       <chr>       <chr>     <chr>       
    ##  1 75N96024… Depar… Power… 2.09e5 DEIA Train… TERMINATED  https://… 1/22/2025   
    ##  2 2033H624… Depar… THE W… 8.87e4 DEIA Train… TERMINATED  https://… 1/22/2025   
    ##  3 2033H624… Depar… Inroa… 8.26e4 DEIA Train… TERMINATED  https://… 1/22/2025   
    ##  4 2032H325… Depar… Hispa… 3.22e4 DEIA Train… TERMINATED  https://… 1/22/2025   
    ##  5 2032H325… Depar… Inroa… 1.77e4 DEIA Train… TERMINATED  https://… 1/22/2025   
    ##  6 75N92021… Depar… DELOI… 4.78e6 DEIA Train… TERMINATED  https://… 1/23/2025   
    ##  7 2032H824… Depar… MANAG… 9.5 e5 DEIA Train… TERMINATED  https://… 1/23/2025   
    ##  8 47QDCB23… Gener… Eleva… 1.52e4 DEIA Train… TERMINATED  https://… 1/23/2025   
    ##  9 68HERH24… Envir… Light… 1.80e5 DEIA Train… TERMINATED  https://… 1/24/2025   
    ## 10 75ACF121… Depar… MEH A… 1.27e6 PROVIDE AL… TERMINATED  https://… 1/27/2025   
    ## # ℹ 5,973 more rows
    ## # ℹ 3 more variables: savings <dbl>, contract_type <chr>, piid2 <chr>
…
``` r
# Note: IDV means Indefinite Delivery Vehicle
contracts <- contracts %>%
  mutate(
    contract_type = map_chr(fpds_link, ~ parse_url(.)$query$contractType),
    piid2 = map_chr(fpds_link, ~ parse_url(.)$query$PIID),
    agencyID = map_chr(fpds_link, ~ parse_url(.)$query$agencyID),
    modNumber = map_chr(fpds_link, ~ parse_url(.)$query$modNumber),
    idvAgencyID = map_chr(fpds_link, ~ parse_url(.)$query$idvAgencyID),
    idvPIID = map_chr(fpds_link, ~ parse_url(.)$query$idvPIID)
  )
contracts
```

    ## # A tibble: 5,983 × 15
    ##    piid      agency vendor  value description fpds_status fpds_link deleted_date
    ##    <chr>     <chr>  <chr>   <dbl> <chr>       <chr>       <chr>     <chr>       
    ##  1 75N96024… Depar… Power… 2.09e5 DEIA Train… TERMINATED  https://… 1/22/2025   
    ##  2 2033H624… Depar… THE W… 8.87e4 DEIA Train… TERMINATED  https://… 1/22/2025   
    ##  3 2033H624… Depar… Inroa… 8.26e4 DEIA Train… TERMINATED  https://… 1/22/2025   
    ##  4 2032H325… Depar… Hispa… 3.22e4 DEIA Train… TERMINATED  https://… 1/22/2025   
    ##  5 2032H325… Depar… Inroa… 1.77e4 DEIA Train… TERMINATED  https://… 1/22/2025   
    ##  6 75N92021… Depar… DELOI… 4.78e6 DEIA Train… TERMINATED  https://… 1/23/2025   
    ##  7 2032H824… Depar… MANAG… 9.5 e5 DEIA Train… TERMINATED  https://… 1/23/2025   
    ##  8 47QDCB23… Gener… Eleva… 1.52e4 DEIA Train… TERMINATED  https://… 1/23/2025   
    ##  9 68HERH24… Envir… Light… 1.80e5 DEIA Train… TERMINATED  https://… 1/24/2025   
    ## 10 75ACF121… Depar… MEH A… 1.27e6 PROVIDE AL… TERMINATED  https://… 1/27/2025   
    ## # ℹ 5,973 more rows
    ## # ℹ 7 more variables: savings <dbl>, contract_type <chr>, piid2 <chr>,
    ## #   agencyID <chr>, modNumber <chr>, idvAgencyID <chr>, idvPIID <chr>
…
